{
  "routes": [
    {
      "method": "GET",
      "path": "/learning-topics",
      "handler": "learning-topic.find",
      "config": {
        "policies": []
      }
    },
    {
      "method": "GET",
      "path": "/learning-topics/count",
      "handler": "learning-topic.count",
      "config": {
        "policies": []
      }
    },
    {
      "method": "GET",
      "path": "/learning-topics/:id",
      "handler": "learning-topic.findOne",
      "config": {
        "policies": []
      }
    },
    {
      "method": "POST",
      "path": "/learning-topics",
      "handler": "learning-topic.create",
      "config": {
        "policies": []
      }
    },
    {
      "method": "PUT",
      "path": "/learning-topics/:id",
      "handler": "learning-topic.update",
      "config": {
        "policies": []
      }
    },
    {
      "method": "DELETE",
      "path": "/learning-topics/:id",
      "handler": "learning-topic.delete",
      "config": {
        "policies": []
      }
    }
  ]
}
